<svg width="24" height="24" viewBox="0 0 24 24" fill="none" xmlns="http://www.w3.org/2000/svg">
<path d="M13.4964 20.9972V12.8011H16.458L16.8982 9.59215H13.4964V7.54815C13.4964 6.62215 13.7727 5.98815 15.1962 5.98815H17V3.12715C16.1228 3.03915 15.2401 2.99715 14.3575 3.00015C11.7397 3.00015 9.94237 4.49215 9.94237 7.23115V9.58615H7V12.7951H9.9488V20.9972H13.4964Z" fill="#F2F2F2"/>
</svg>
