<svg width="24" height="24" viewBox="0 0 24 24" fill="none" xmlns="http://www.w3.org/2000/svg">
<path d="M5.16336 7.33401C6.35814 7.33401 7.32671 6.36381 7.32671 5.16701C7.32671 3.9702 6.35814 3 5.16336 3C3.96857 3 3 3.9702 3 5.16701C3 6.36381 3.96857 7.33401 5.16336 7.33401Z" fill="#F2F2F2"/>
<path d="M9.3697 8.97632V20.9989H13.0962V15.0534C13.0962 13.4846 13.3909 11.9654 15.3328 11.9654C17.2479 11.9654 17.2717 13.759 17.2717 15.1525V20.9998H21.0002V14.4067C21.0002 11.1681 20.3041 8.6792 16.5252 8.6792C14.7109 8.6792 13.4947 9.67654 12.9974 10.6204H12.9469V8.97632H9.3697ZM3.29688 8.97632H7.02936V20.9989H3.29688V8.97632Z" fill="#F2F2F2"/>
</svg>
